<?xml version="1.0" encoding="UTF-8"?>
<svg width="31px" height="31px" viewBox="0 0 31 31" version="1.1" xmlns="http://www.w3.org/2000/svg" xmlns:xlink="http://www.w3.org/1999/xlink">
    <!-- Generator: Sketch 55.2 (78181) - https://sketchapp.com -->
    <title>info-icon</title>
    <desc>Created with Sketch.</desc>
    <g id="old-Settings" stroke="none" stroke-width="1" fill="none" fill-rule="evenodd">
        <g id="issue_reporter" transform="translate(-167.000000, -528.000000)" fill="#077CA6">
            <g id="Group" transform="translate(142.000000, 513.000000)">
                <g id="info-icon" transform="translate(25.000000, 15.000000)">
                    <path d="M15.5,0 C6.93958638,0 0,6.93958638 0,15.5 C0,24.0604136 6.93958638,31 15.5,31 C24.0604136,31 31,24.0604136 31,15.5 C31,11.3891444 29.366969,7.44665876 26.4601551,4.53984489 C23.5533412,1.63303103 19.6108556,0 15.5,0 Z M15.5,30 C7.49187113,30 1,23.5081289 1,15.5 C1,7.49187113 7.49187113,1 15.5,1 C23.5081289,1 30,7.49187113 30,15.5 C30,19.3456391 28.4723258,23.0337708 25.7530483,25.7530483 C23.0337708,28.4723258 19.3456391,30 15.5,30 Z" id="Shape" fill-rule="nonzero"></path>
                    <path d="M15.1639556,18.07375 C14.8495767,18.0640137 14.546078,18.1893718 14.3302056,18.418125 C13.8899315,18.9214757 13.8899315,19.6728993 14.3302056,20.17625 C14.546078,20.4050032 14.8495767,20.5303613 15.1639556,20.520625 C15.4797175,20.5282698 15.7842619,20.4033847 16.0037473,20.17625 C16.4549147,19.6770418 16.4549147,18.9173332 16.0037473,18.418125 C15.7842619,18.1909903 15.4797175,18.0661052 15.1639556,18.07375 L15.1639556,18.07375 Z" id="Path" fill-rule="nonzero"></path>
                    <rect id="Rectangle" x="14.1231223" y="10" width="2" height="7"></rect>
                </g>
            </g>
        </g>
    </g>
</svg>